<svg width="140" height="54" viewBox="0 0 140 54" fill="none" xmlns="http://www.w3.org/2000/svg">
<path d="M5.8244 18.3413C6.51641 18.3367 7.20299 18.4655 7.84769 18.7208C8.46163 18.9628 9.02225 19.3259 9.49713 19.7891C9.97285 20.2566 10.3489 20.8184 10.602 21.4396C10.8714 22.1134 11.005 22.8353 10.9948 23.5625C10.9968 23.8441 10.9812 24.1256 10.9479 24.4053V24.4132C10.9284 24.5592 10.8574 24.6931 10.748 24.79C10.6386 24.8869 10.4983 24.9402 10.3531 24.94H1.87156C1.92289 25.4882 2.06949 26.0228 2.30456 26.5191C2.52238 26.9738 2.82566 27.381 3.19736 27.7176C3.56603 28.0539 3.99647 28.313 4.46401 28.48C4.96617 28.6575 5.49467 28.746 6.02639 28.7417C6.6978 28.7556 7.363 28.6089 7.96822 28.3135C8.30733 28.1433 8.62884 27.9391 8.92797 27.704C9.09397 27.5707 9.30405 27.5072 9.51483 27.5266C9.72561 27.546 9.92102 27.6468 10.0607 27.8082C10.1318 27.8905 10.1861 27.9863 10.2205 28.09C10.2549 28.1938 10.2686 28.3034 10.2609 28.4125C10.2532 28.5217 10.2243 28.6282 10.1757 28.726C10.1272 28.8237 10.06 28.9107 9.97812 28.9818C9.54961 29.342 9.07697 29.6443 8.57197 29.8813C7.76812 30.2521 6.89365 30.4385 6.01077 30.4273C5.19301 30.4353 4.38188 30.2778 3.62478 29.964C2.9151 29.6702 2.26969 29.2368 1.72574 28.6887C1.18178 28.1407 0.750036 27.4888 0.455365 26.7706C0.145758 26.0173 -0.00954146 25.2079 -0.0010754 24.3917C-0.00484448 23.5834 0.147181 22.7822 0.446437 22.0332C0.730418 21.3144 1.15181 20.6599 1.6863 20.1074C2.21598 19.5628 2.84224 19.1246 3.53215 18.816C4.25467 18.4953 5.03588 18.3336 5.8244 18.3413ZM5.77753 20.0032C5.31123 20.0002 4.84806 20.0807 4.40932 20.2411C3.98975 20.395 3.60136 20.6253 3.2632 20.9207C2.92292 21.2192 2.63763 21.5767 2.42063 21.9765C2.19073 22.4009 2.0291 22.8598 1.94187 23.3359H9.15117C9.1609 22.8457 9.06492 22.3594 8.86994 21.9108C8.69521 21.5165 8.44482 21.1614 8.13339 20.8664C7.82657 20.5794 7.46388 20.361 7.06873 20.2252C6.65374 20.0778 6.21718 20.0028 5.77753 20.0032Z" fill="black"/>
<path d="M18.9942 24.1584L23.0118 29.7273C23.0417 29.7686 23.0597 29.8176 23.0637 29.8688C23.0677 29.9199 23.0575 29.9712 23.0343 30.0168C23.0111 30.0624 22.9758 30.1005 22.9323 30.1268C22.8889 30.1531 22.8391 30.1666 22.7886 30.1657H21.2173L17.9675 25.5121L14.7624 30.1657H13.1855C13.1353 30.1662 13.0859 30.1527 13.0429 30.1265C12.9998 30.1003 12.9648 30.0625 12.9417 30.0173C12.9185 29.9721 12.9082 29.9213 12.9118 29.8705C12.9155 29.8196 12.9329 29.7709 12.9623 29.7295L16.933 24.1346L13.2915 19.0369C13.2623 18.9955 13.2449 18.9466 13.2413 18.8958C13.2377 18.845 13.248 18.7941 13.2711 18.7489C13.2942 18.7036 13.3292 18.6658 13.3722 18.6394C13.4152 18.6131 13.4645 18.5993 13.5147 18.5997H15.0882L17.9898 22.8024L20.8914 18.5997H22.4627C22.5133 18.5987 22.5631 18.6122 22.6065 18.6385C22.6499 18.6648 22.6852 18.7029 22.7084 18.7485C22.7316 18.7941 22.7418 18.8454 22.7378 18.8965C22.7339 18.9477 22.7159 18.9967 22.6859 19.038L18.9942 24.1584Z" fill="black"/>
<path d="M31.7902 18.3415C32.5663 18.3349 33.3352 18.4927 34.0478 18.8048C34.7238 19.1026 35.3317 19.5392 35.8334 20.0871C36.339 20.6437 36.7358 21.2925 37.003 21.9993C37.2897 22.7583 37.4324 23.5654 37.4237 24.3782C37.4311 25.1931 37.2884 26.0023 37.003 26.7639C36.7371 27.478 36.336 28.1323 35.8222 28.6897C35.3054 29.2485 34.6798 29.6922 33.9851 29.9927C33.2905 30.2932 32.5419 30.444 31.7868 30.4354C30.9647 30.4399 30.1511 30.2657 29.4008 29.9245C28.6876 29.6128 28.0667 29.1177 27.5996 28.4881V34.0898C27.5993 34.1849 27.5619 34.2759 27.4956 34.343C27.4293 34.4101 27.3395 34.4478 27.2458 34.4478H26.1511C26.0576 34.4475 25.9681 34.4097 25.902 34.3426C25.8359 34.2755 25.7987 34.1847 25.7984 34.0898V18.9611C25.7984 18.8661 25.8355 18.7749 25.9016 18.7076C25.9677 18.6403 26.0574 18.6023 26.1511 18.602H27.1287C27.2225 18.602 27.3125 18.6399 27.3788 18.7072C27.4452 18.7745 27.4824 18.8659 27.4824 18.9611V20.478C27.9433 19.8054 28.5682 19.2656 29.2959 18.9113C30.072 18.526 30.9263 18.3308 31.7902 18.3415ZM31.5558 20.0271C31.0582 20.0267 30.564 20.1109 30.0939 20.2763C29.6187 20.4422 29.1841 20.7095 28.8194 21.0602C28.4268 21.4427 28.1196 21.9062 27.9188 22.4196C27.68 23.0434 27.5661 23.7092 27.584 24.3782C27.5669 25.0512 27.6807 25.721 27.9188 26.3493C28.1195 26.8628 28.4266 27.3264 28.8194 27.7087C29.1844 28.0591 29.6189 28.3263 30.0939 28.4926C30.5642 28.6575 31.0582 28.7417 31.5558 28.7418C32.1059 28.7469 32.6513 28.6378 33.1584 28.4212C33.6409 28.2129 34.0751 27.9042 34.4328 27.515C34.7992 27.1157 35.0854 26.6479 35.2754 26.1375C35.6816 25.0106 35.6816 23.7742 35.2754 22.6473C35.0857 22.1396 34.8041 21.6723 34.4451 21.2698C34.0881 20.8778 33.6539 20.5663 33.1706 20.3556C32.6606 20.1336 32.1107 20.0217 31.5558 20.0271Z" fill="black"/>
<path d="M45.8249 18.5069C45.9811 18.5058 46.1372 18.5138 46.2925 18.5307C46.3911 18.5427 46.482 18.5911 46.5476 18.6668C46.6133 18.7424 46.6492 18.84 46.6485 18.9408V19.8029C46.6485 19.9126 46.6056 20.0179 46.5293 20.0956C46.4529 20.1734 46.3493 20.2172 46.2412 20.2175H45.9934C45.5377 20.2166 45.085 20.2932 44.6542 20.444C44.236 20.5883 43.8474 20.8095 43.5081 21.0965C43.1684 21.3871 42.8931 21.7473 42.7001 22.1535C42.4899 22.6101 42.386 23.1097 42.3966 23.6136V29.7535C42.3966 29.8631 42.3536 29.9683 42.2772 30.0459C42.2009 30.1234 42.0972 30.167 41.9892 30.167H41.0027C40.8946 30.167 40.791 30.1234 40.7146 30.0459C40.6383 29.9683 40.5953 29.8631 40.5953 29.7535V19.0167C40.5953 18.9069 40.6382 18.8017 40.7146 18.7239C40.7909 18.6462 40.8945 18.6024 41.0027 18.6021H41.872C41.9256 18.6021 41.9787 18.6128 42.0282 18.6337C42.0777 18.6545 42.1226 18.6851 42.1605 18.7236C42.1983 18.7621 42.2283 18.8078 42.2487 18.8581C42.2691 18.9084 42.2795 18.9623 42.2794 19.0167V20.2628C42.688 19.7029 43.2267 19.2543 43.8474 18.9567C44.465 18.6582 45.1408 18.5045 45.8249 18.5069Z" fill="black"/>
<path d="M53.8254 18.3413C54.5174 18.3368 55.204 18.4655 55.8487 18.7208C56.4626 18.9628 57.0232 19.3259 57.4981 19.7891C57.9715 20.2575 58.3455 20.8192 58.5974 21.4396C58.8684 22.1131 59.0035 22.835 58.9947 23.5625C58.9967 23.8441 58.9811 24.1257 58.9478 24.4053V24.4132C58.9283 24.5593 58.8573 24.6932 58.7479 24.7901C58.6385 24.8869 58.4981 24.9402 58.353 24.94H49.8714C49.9229 25.488 50.0691 26.0226 50.3033 26.5191C50.5212 26.9738 50.8245 27.381 51.1961 27.7176C51.5674 28.0539 52.0005 28.3122 52.4706 28.4777C52.9746 28.6557 53.505 28.7442 54.0385 28.7394C54.7096 28.7532 55.3744 28.6065 55.9792 28.3112C56.316 28.1406 56.6353 27.9364 56.9323 27.7018C57.0983 27.5685 57.3084 27.505 57.5192 27.5244C57.7299 27.5438 57.9253 27.6446 58.065 27.806C58.1361 27.8883 58.1905 27.984 58.2248 28.0878C58.2592 28.1915 58.2729 28.3011 58.2653 28.4103C58.2576 28.5195 58.2286 28.626 58.1801 28.7237C58.1315 28.8214 58.0644 28.9084 57.9825 28.9796C57.5539 29.3398 57.0813 29.6421 56.5763 29.879C55.7723 30.2507 54.8974 30.4379 54.014 30.4273C53.1962 30.4355 52.3851 30.278 51.628 29.964C50.9148 29.6691 50.2665 29.2332 49.7208 28.6817C49.1673 28.1198 48.7301 27.4511 48.4349 26.7152C48.1398 25.9792 47.9926 25.1908 48.0021 24.3962C47.9969 23.5865 48.1486 22.7835 48.4485 22.0332C48.7325 21.3145 49.1539 20.6599 49.6884 20.1074C50.2185 19.5617 50.8456 19.1228 51.5365 18.8137C52.2581 18.4943 53.0382 18.3333 53.8254 18.3413ZM53.7785 20.0032C53.3122 20.0002 52.849 20.0807 52.4103 20.2411C51.9906 20.3948 51.6022 20.6251 51.2642 20.9208C50.9238 21.2196 50.6385 21.5774 50.4216 21.9777C50.1908 22.4016 50.0291 22.8607 49.9428 23.337H57.1466C57.1567 22.847 57.0611 22.3606 56.8665 21.912C56.6913 21.5179 56.441 21.1629 56.1299 20.8675C55.8231 20.5806 55.4604 20.3622 55.0653 20.2263C54.6517 20.0792 54.2167 20.0038 53.7785 20.0032Z" fill="black"/>
<path d="M65.6203 18.3414C66.4625 18.3414 67.1957 18.5076 67.8199 18.8399C68.3065 19.0983 68.7498 19.4333 69.1335 19.8322C69.2174 19.9194 69.2645 20.0365 69.2645 20.1585C69.2645 20.2804 69.2174 20.3975 69.1335 20.4847L68.6592 20.9764C68.5745 21.0618 68.4609 21.1111 68.3416 21.1143C68.2223 21.1174 68.1064 21.0742 68.0175 20.9933C67.7335 20.7421 67.416 20.5327 67.0745 20.3714C66.5989 20.1452 66.0797 20.0291 65.5545 20.0316C65.0701 20.009 64.59 20.134 64.1762 20.3907C63.9991 20.5058 63.855 20.6663 63.7585 20.8561C63.6621 21.0459 63.6168 21.2581 63.6272 21.4714C63.6208 21.6528 63.6581 21.833 63.7359 21.9965C63.8137 22.1599 63.9296 22.3017 64.0736 22.4094C64.3712 22.6359 64.8391 22.8851 65.4775 23.157L66.5299 23.6101C67.5603 24.055 68.3236 24.53 68.8199 25.0352C69.3161 25.5405 69.5657 26.205 69.5687 27.029C69.5848 27.521 69.4824 28.0095 69.2704 28.4523C69.0585 28.8951 68.7433 29.2787 68.3523 29.5699C67.9671 29.8613 67.533 30.0793 67.0711 30.2133C66.5848 30.3565 66.0809 30.4286 65.5746 30.4274C64.5605 30.4274 63.6793 30.2057 62.9308 29.7624C62.3529 29.4279 61.8296 29.0045 61.3796 28.5073C61.302 28.4185 61.2606 28.3031 61.2637 28.1845C61.2668 28.0659 61.3142 27.9529 61.3963 27.8684L61.9409 27.302C61.9838 27.2582 62.0347 27.2235 62.0908 27.1998C62.1469 27.1761 62.2071 27.1638 62.2679 27.1638C62.3287 27.1638 62.3889 27.1761 62.445 27.1998C62.5011 27.2235 62.552 27.2582 62.5949 27.302C62.9393 27.6497 63.3177 27.9609 63.7243 28.2309C64.2694 28.5805 64.9043 28.7583 65.5489 28.7418C66.0901 28.7561 66.6234 28.6071 67.0812 28.3136C67.2843 28.1876 67.4509 28.009 67.5638 27.7963C67.6768 27.5835 67.732 27.3441 67.724 27.1026C67.7345 26.8817 67.6869 26.6619 67.5861 26.4658C67.4853 26.2697 67.3349 26.1044 67.1503 25.9868C66.7003 25.6986 66.2256 25.4521 65.7319 25.2505L64.6092 24.7758C64.1881 24.5855 63.802 24.3918 63.4508 24.1947C63.121 24.0116 62.8179 23.7828 62.5502 23.515C62.3066 23.2707 62.1122 22.9806 61.9777 22.6608C61.8395 22.3138 61.7719 21.9419 61.7791 21.5677C61.7701 21.0868 61.8742 20.6107 62.0826 20.1789C62.28 19.7826 62.564 19.4373 62.9129 19.1695C63.2829 18.8915 63.6985 18.6825 64.1405 18.5521C64.621 18.4089 65.1196 18.3379 65.6203 18.3414Z" fill="black"/>
<path d="M76.2346 18.3414C77.0768 18.3414 77.81 18.5075 78.4342 18.8398C78.906 19.09 79.3373 19.4121 79.7131 19.7948C79.8067 19.8917 79.8591 20.0221 79.8591 20.1578C79.8591 20.2936 79.8067 20.4239 79.7131 20.5209L79.308 20.9412C79.2187 21.035 79.0976 21.0909 78.9693 21.0979C78.841 21.1048 78.7148 21.0622 78.6161 20.9786C78.3364 20.7338 78.0247 20.5294 77.6898 20.3714C77.2143 20.145 76.6951 20.0289 76.1699 20.0315C75.687 20.01 75.2087 20.1351 74.7961 20.3906C74.6189 20.5057 74.4748 20.6663 74.3784 20.856C74.282 21.0458 74.2367 21.2581 74.247 21.4713C74.2409 21.6527 74.2784 21.8328 74.3562 21.9962C74.4339 22.1597 74.5497 22.3014 74.6934 22.4093C74.991 22.6359 75.459 22.8851 76.0973 23.157L77.1497 23.6101C78.1786 24.0534 78.9427 24.5284 79.4419 25.0352C79.9412 25.5419 80.1908 26.2065 80.1908 27.0289C80.2075 27.521 80.1054 28.0098 79.8934 28.4527C79.6814 28.8956 79.3659 29.2791 78.9743 29.5698C78.5874 29.8612 78.1514 30.0785 77.6876 30.211C77.2013 30.3541 76.6974 30.4262 76.1911 30.4251C75.177 30.4251 74.2958 30.2034 73.5473 29.7601C72.984 29.4357 72.4723 29.0267 72.0296 28.5469C71.9425 28.4486 71.8958 28.3202 71.8991 28.1881C71.9024 28.056 71.9555 27.9302 72.0474 27.8366L72.5206 27.3461C72.5684 27.2974 72.6252 27.2588 72.6877 27.2325C72.7502 27.2061 72.8173 27.1925 72.885 27.1925C72.9527 27.1925 73.0197 27.2061 73.0822 27.2325C73.1448 27.2588 73.2015 27.2974 73.2493 27.3461C73.5839 27.6784 73.9494 27.977 74.3408 28.2376C74.8859 28.5872 75.5208 28.765 76.1654 28.7485C76.7067 28.763 77.24 28.614 77.6977 28.3203C77.9022 28.194 78.0699 28.0145 78.1833 27.8005C78.2967 27.5864 78.3517 27.3454 78.3427 27.1025C78.3532 26.8816 78.3057 26.6618 78.2049 26.4657C78.1041 26.2696 77.9536 26.1043 77.7691 25.9867C77.3201 25.6987 76.8465 25.4523 76.354 25.2504L75.2313 24.7757C74.811 24.5854 74.4252 24.3917 74.0741 24.1946C73.7439 24.0121 73.4407 23.7833 73.1734 23.5149C72.9295 23.2707 72.7347 22.9806 72.5998 22.6608C72.4616 22.3138 72.394 21.9419 72.4012 21.5676C72.3922 21.0868 72.4963 20.6107 72.7047 20.1788C72.9021 19.7822 73.1866 19.4369 73.5361 19.1695C73.9059 18.8911 74.3216 18.682 74.7637 18.5521C75.2413 18.4097 75.7368 18.3387 76.2346 18.3414Z" fill="black"/>
<path d="M95.5289 14.5002C96.229 14.4896 96.9257 14.6022 97.5879 14.8332C98.1638 15.035 98.6931 15.3537 99.1436 15.7701C99.571 16.1729 99.9099 16.6627 100.138 17.2076C100.377 17.7847 100.498 18.4053 100.493 19.0314C100.499 19.6624 100.38 20.2881 100.142 20.8711C99.9161 21.4193 99.5771 21.9121 99.1481 22.3166C98.6963 22.7341 98.1675 23.0567 97.5924 23.2659C96.9315 23.5031 96.2342 23.6182 95.5334 23.6057H91.931V29.7535C91.931 29.8611 91.8889 29.9642 91.8139 30.0403C91.739 30.1163 91.6374 30.1591 91.5314 30.1591H90.5069C90.401 30.1591 90.2994 30.1163 90.2244 30.0403C90.1495 29.9642 90.1074 29.8611 90.1074 29.7535V14.5002H95.5289ZM91.9265 16.162V21.9564H95.482C96.5125 21.9564 97.2885 21.6871 97.81 21.1487C98.3315 20.6102 98.5919 19.9139 98.5912 19.0598C98.5912 18.22 98.3308 17.5275 97.81 16.9822C97.2892 16.4369 96.5132 16.1635 95.482 16.162H91.9265Z" fill="black"/>
<path d="M110.528 14.2339C111.932 14.2339 113.187 14.5461 114.294 15.1707C115.215 15.6798 116.022 16.3772 116.665 17.2188C116.742 17.3205 116.776 17.4491 116.76 17.5764C116.744 17.7038 116.68 17.8195 116.58 17.8985L115.965 18.3935C115.866 18.4727 115.74 18.509 115.614 18.4943C115.489 18.4797 115.374 18.4154 115.295 18.3154C114.78 17.6577 114.147 17.1044 113.429 16.6841C112.552 16.1844 111.559 15.9307 110.552 15.9489C109.717 15.9412 108.889 16.1066 108.119 16.4349C107.385 16.7478 106.719 17.206 106.161 17.7829C105.603 18.3598 105.164 19.0437 104.869 19.7948C104.245 21.4296 104.245 23.2418 104.869 24.8766C105.163 25.628 105.602 26.3122 106.16 26.8891C106.719 27.4661 107.385 27.9241 108.119 28.2365C108.889 28.5657 109.717 28.7314 110.552 28.7237C111.559 28.7415 112.552 28.4874 113.429 27.9873C114.147 27.5678 114.78 27.0143 115.295 26.3561C115.374 26.2561 115.489 26.1918 115.614 26.1771C115.74 26.1625 115.866 26.1987 115.965 26.2779L116.587 26.7786C116.684 26.8567 116.748 26.97 116.765 27.0949C116.782 27.2197 116.75 27.3463 116.677 27.4481C116.047 28.2972 115.242 28.9959 114.318 29.4951C113.153 30.1315 111.846 30.4544 110.523 30.4331C109.445 30.4416 108.375 30.2317 107.377 29.8157C106.424 29.4221 105.557 28.8407 104.826 28.1049C104.095 27.3692 103.515 26.4937 103.12 25.5291C102.294 23.4827 102.294 21.1887 103.12 19.1423C103.516 18.1781 104.096 17.3029 104.826 16.5674C105.557 15.8318 106.424 15.2505 107.377 14.8569C108.376 14.4378 109.447 14.226 110.528 14.2339Z" fill="black"/>
<path d="M130.884 16.1562H125.804V29.8145C125.804 29.8607 125.795 29.9065 125.777 29.9492C125.76 29.9919 125.734 30.0306 125.702 30.0632C125.67 30.0959 125.631 30.1217 125.589 30.1393C125.547 30.1569 125.502 30.1658 125.457 30.1657H124.322C124.276 30.1657 124.231 30.1566 124.189 30.139C124.147 30.1213 124.109 30.0955 124.077 30.0628C124.045 30.0302 124.019 29.9915 124.002 29.9489C123.985 29.9063 123.976 29.8606 123.976 29.8145V16.1562H118.898C118.806 16.1562 118.718 16.1192 118.653 16.0534C118.588 15.9875 118.552 15.8982 118.552 15.805V14.8467C118.552 14.8005 118.561 14.7547 118.578 14.712C118.595 14.6692 118.621 14.6304 118.653 14.5976C118.685 14.5649 118.723 14.5389 118.765 14.5212C118.807 14.5035 118.852 14.4944 118.898 14.4944H130.884C130.976 14.4944 131.064 14.5315 131.129 14.5976C131.194 14.6636 131.231 14.7533 131.231 14.8467V15.805C131.231 15.8513 131.222 15.897 131.204 15.9397C131.187 15.9824 131.161 16.0211 131.129 16.0538C131.097 16.0864 131.058 16.1122 131.016 16.1298C130.974 16.1474 130.929 16.1564 130.884 16.1562Z" fill="black"/>
<path d="M138.15 47.3517C138.15 47.3517 137.154 47.9951 135.449 47.4196C134.82 47.2078 133.917 46.5553 133.247 46.8113L133.235 46.817C132.203 47.3686 132.467 48.2896 132.484 48.9466C132.514 50.142 132.115 51.3078 131.362 52.227C130.608 53.1462 129.551 53.7564 128.388 53.9441C127.225 54.1318 126.034 53.8841 125.037 53.2472C124.04 52.6103 123.304 51.6275 122.968 50.4816C122.968 50.4816 122.838 49.9775 122.818 49.8427C122.569 48.5011 122.76 47.1135 123.362 45.8926C123.891 44.8096 125.285 43.2395 124.917 41.9889C124.903 41.9436 124.248 39.8694 121.7 39.8694C120.637 39.8694 119.839 39.7222 118.215 39.7222C113.426 39.5257 108.896 37.4639 105.565 33.9652C105.617 33.9394 105.667 33.9091 105.713 33.8746C107.666 35.8045 110.032 37.2502 112.626 38.0989C115.22 38.9476 117.972 39.1763 120.668 38.7672C121.493 38.6428 122.309 38.4573 123.107 38.2121C123.575 38.0728 124.028 37.9142 124.472 37.7386C128.749 36.0728 132.222 32.7869 134.16 28.5733C136.097 24.3596 136.348 19.5471 134.859 15.1495C133.37 10.752 130.258 7.11265 126.178 4.99822C122.098 2.8838 117.369 2.45935 112.986 3.81429C110.376 4.60726 107.948 5.76953 106.188 7.69644C104.291 9.8771 102.237 9.89409 101.215 9.46589C100.028 8.96745 98.1437 7.34413 97.6739 5.89527C97.1572 4.30933 94.6451 2.558 94.6451 2.558C93.4428 1.89829 92.0393 1.72436 90.7159 2.0711C89.3926 2.41785 88.2474 3.25962 87.5099 4.42761C86.7724 5.59559 86.4972 7.00342 86.7395 8.36875C86.9818 9.73407 87.7236 10.9559 88.8162 11.7893C88.7482 11.7564 88.2806 11.5004 88.2806 11.5004C87.5816 11.1172 86.9638 10.5978 86.4626 9.97214C85.9614 9.34645 85.5865 8.62664 85.3595 7.85384C85.1324 7.08105 85.0575 6.27041 85.1392 5.46824C85.2209 4.66608 85.4575 3.88811 85.8354 3.17878C87.4224 0.194958 91.7178 -0.928791 94.3013 0.851989C95.8258 1.90211 97.0768 3.30679 97.6638 5.08871C98.1517 6.56516 99.1742 7.79821 100.524 8.53812C100.577 8.56417 100.636 8.59476 100.68 8.62081C102.318 9.45343 104.293 9.06261 105.565 7.72249C108.387 4.75713 112.087 2.81032 116.101 2.17913C120.115 1.54793 124.222 2.26701 127.796 4.22664C136.835 9.18155 140.205 20.6388 135.323 29.8203C133.983 32.3439 132.093 34.5237 129.797 36.1935C129.467 36.4823 127.595 37.5154 127.242 37.7794C125.791 38.885 125.96 41.2447 126.066 41.6026C126.415 42.7898 127.938 43.909 129.023 44.2421C130.129 44.5819 130.704 45.1279 131.024 45.5256C131.381 45.9696 132.232 45.99 132.84 45.7442C133.541 45.4621 133.859 44.3724 134.168 43.7368C134.371 43.3219 134.648 42.9486 134.985 42.6358C135.264 42.3797 135.815 42.007 136.14 41.9198C137.663 41.512 139.265 42.1169 139.814 43.6111C139.948 43.9675 140.011 44.3473 140 44.7285C139.988 45.1098 139.903 45.4851 139.748 45.8327C139.594 46.1804 139.373 46.4935 139.098 46.7542C138.824 47.0149 138.502 47.2179 138.15 47.3517Z" fill="url(#paint0_radial)"/>
<defs>
<radialGradient id="paint0_radial" cx="0" cy="0" r="1" gradientUnits="userSpaceOnUse" gradientTransform="translate(112.553 26.9996) scale(35.8378 36.378)">
<stop stop-color="white"/>
<stop offset="1" stop-color="#282828"/>
</radialGradient>
</defs>
</svg>
