<svg width="134" height="32" viewBox="0 0 134 32" fill="none" xmlns="http://www.w3.org/2000/svg">
<path d="M17.7539 18.0196C17.8856 18.3303 17.9092 18.6714 17.8417 19.0733C17.7539 19.5393 17.5512 19.9041 17.2304 20.1877C16.9062 20.4613 16.555 20.6268 16.1666 20.6639C15.7748 20.7011 15.2987 20.6639 14.738 20.5626L13.7688 20.3735C13.448 20.3093 13.2555 20.262 13.1845 20.2114C13.117 20.1641 13.0798 20.0966 13.063 20.002C13.0562 19.9311 13.0832 19.6812 13.1508 19.2793L13.6877 16.4087L15.4067 16.7261C16.1598 16.8713 16.7069 17.047 17.0447 17.2496C17.3858 17.4522 17.6188 17.7156 17.7539 18.0196ZM17.8451 11.9845C17.5411 11.8157 16.9602 11.6536 16.1092 11.4949L14.657 11.2213L14.0491 14.4533L15.5047 14.7268C16.2645 14.8653 16.8387 14.9092 17.227 14.8484C17.6154 14.7842 17.9194 14.6458 18.1558 14.4263C18.382 14.2135 18.534 13.9264 18.5948 13.5887C18.6623 13.2375 18.6286 12.9302 18.5002 12.6465C18.3786 12.3729 18.1625 12.1467 17.8451 11.9845ZM30.7256 16C30.7256 24.4903 23.8463 31.3628 15.3594 31.3628C6.87595 31.3628 0 24.4903 0 16C0 7.50978 6.87595 0.637207 15.3594 0.637207C23.8463 0.637207 30.7256 7.50978 30.7256 16ZM21.6849 11.9406C21.4249 11.3733 20.9858 10.8937 20.3813 10.4986C20.1517 10.3432 19.8579 10.2082 19.537 10.0832L19.9727 7.74956L17.7302 7.32741L17.3182 9.50907L15.8762 9.2389L16.2882 7.05724L14.0423 6.63509L13.6303 8.82013L10.2025 8.17846L9.86138 10.0123L10.3848 10.1102C10.7361 10.171 10.9657 10.2487 11.0738 10.3365C11.1886 10.4175 11.2562 10.5222 11.2866 10.6404C11.317 10.7586 11.2967 11.0119 11.2224 11.4104L9.83774 18.7997C9.76682 19.1847 9.69928 19.4312 9.62498 19.5292C9.55068 19.6271 9.44937 19.7014 9.31428 19.7386C9.17919 19.7757 8.93941 19.7622 8.59156 19.6879L8.06472 19.6001L7.72363 21.4272L11.1481 22.0621L10.7428 24.2437L12.9887 24.6659L13.3939 22.4842L14.6705 22.7206C14.7279 22.7341 14.7786 22.7375 14.836 22.751L14.4307 24.9327L16.6732 25.3481L17.119 22.9874C17.5073 22.9807 17.8552 22.9469 18.1625 22.8962C18.9967 22.7308 19.6789 22.3897 20.2158 21.8729C20.7494 21.3664 21.0838 20.7585 21.2121 20.0526C21.3236 19.4583 21.283 18.8976 21.0939 18.3776C20.9014 17.844 20.5941 17.4016 20.1686 17.0436C19.8781 16.7937 19.4323 16.5302 18.8447 16.2601C19.4593 16.1689 19.9693 16.0102 20.3779 15.7704C20.79 15.534 21.1243 15.2368 21.381 14.8754C21.641 14.5174 21.8166 14.1156 21.8943 13.6799C22.0159 13.1058 21.945 12.5114 21.6849 11.9406ZM50.0702 19.4481C50.0702 25.0036 46.4363 31.3527 38.7498 31.3527C34.6972 31.3527 32.6709 29.5966 32.6709 26.5672C32.6709 25.5136 32.8431 24.47 33.0525 23.4602L36.5141 6.16228H41.5765L39.5536 15.919H39.6245C40.8808 14.4161 42.8025 13.4975 44.8997 13.4975C48.466 13.5077 50.0702 16.4087 50.0702 19.4481ZM44.7916 20.4951C44.7916 18.8571 44.0925 17.5603 42.5593 17.5603C40.739 17.5603 38.9626 19.4144 38.3648 22.3863L38.0508 23.7844C37.9798 24.345 37.8414 24.9394 37.8751 25.6757C37.9089 26.8914 38.6418 27.5601 39.7968 27.5601C42.7011 27.55 44.7916 23.5008 44.7916 20.4951ZM51.4447 30.9778H56.4767L59.7255 13.8893H54.6935L51.4447 30.9778ZM58.2936 6.4561C56.7536 6.4561 55.423 7.6111 55.3926 9.31995C55.3926 10.8194 56.4395 11.7684 57.8343 11.7684C59.4452 11.7684 60.8029 10.7181 60.8029 8.93833C60.8062 7.42872 59.7559 6.4561 58.2936 6.4561ZM70.3839 9.10719L65.2472 10.3027L64.5482 13.8927H62.3462L61.6472 17.7021H63.8153L62.4847 24.5173C62.2416 25.8141 62.1369 26.753 62.1369 27.6952C62.1369 29.8262 63.5722 31.3628 66.5745 31.3628C67.6552 31.3628 68.9081 31.221 69.543 30.9812L70.1442 27.0299C69.6849 27.1008 69.2019 27.1008 68.746 27.1008C67.6586 27.1008 67.3073 26.4997 67.3073 25.6622C67.3073 25.0678 67.4458 24.1897 67.5876 23.494L68.746 17.692H72.3731L73.1127 13.8825H69.4789L70.3839 9.10719ZM73.2613 24.345C73.2613 28.7759 76.2299 31.3257 80.4513 31.3257C82.4844 31.3257 84.2304 30.9745 85.3077 30.451L85.274 26.6044C84.3959 26.9556 83.3523 27.3035 81.8866 27.3035C79.9954 27.3035 78.5331 26.1113 78.5331 23.7709C78.5331 20.5626 80.7283 17.5164 84.3317 17.5164C85.3483 17.5164 86.0473 17.692 86.6417 17.9352L87.8609 14.0919C87.128 13.7745 85.8683 13.4908 84.406 13.4908C77.9049 13.5077 73.2613 18.2627 73.2613 24.345ZM105.578 20.5322C105.578 26.7868 101.319 31.3628 95.3751 31.3628C91.0489 31.3628 88.1412 28.5328 88.1412 24.3011C88.1412 18.3641 92.2614 13.5077 98.3437 13.5077C102.927 13.5077 105.578 16.6518 105.578 20.5322ZM100.373 20.5626C100.373 18.9922 99.7148 17.3171 97.6851 17.3171C94.7875 17.3171 93.3218 21.5454 93.3623 24.1965C93.3623 26.189 94.3383 27.5162 96.0877 27.5162C98.8435 27.5196 100.373 23.5008 100.373 20.5626ZM113.933 6.4561C112.396 6.4561 111.066 7.6111 111.039 9.31995C111.039 10.8194 112.092 11.7684 113.487 11.7684C115.101 11.7684 116.456 10.7181 116.456 8.93833C116.459 7.42872 115.405 6.4561 113.933 6.4561ZM107.094 30.9778H112.119L115.375 13.8893H110.343L107.094 30.9778ZM129.63 13.5077C127.357 13.5077 125.229 14.487 123.625 16.7227H123.554L123.906 13.8927H119.441C119.228 15.3989 118.948 17.2834 118.526 19.4515L116.354 30.9812H121.386L122.818 23.3961C123.517 19.6339 125.442 17.5603 127.087 17.5603C128.347 17.5603 128.765 18.4012 128.765 19.59C128.765 20.2249 128.694 20.924 128.583 21.5116L126.807 30.9812H131.835L133.726 21.059C133.865 20.2215 134.007 18.9314 134.007 18.1716C134 15.2199 132.426 13.5077 129.63 13.5077Z" fill="white" fill-opacity="0.81"/>
</svg>
