<svg width="101" height="101" viewBox="0 0 101 101" fill="none" xmlns="http://www.w3.org/2000/svg">
<path d="M70.7697 20.2634C62.9675 20.2655 55.8557 23.2229 50.4958 28.0801C45.1317 23.2291 38.0241 20.2697 30.2303 20.2697C30.1657 20.2697 30.099 20.2697 30.0364 20.2697C13.4394 20.3781 0 33.8801 0 50.5C0 67.1867 13.5437 80.7283 30.2283 80.7283C38.022 80.7283 45.1297 77.773 50.4917 72.9178C49.3717 71.9063 48.3581 70.7864 47.4008 69.6143H53.643C52.7024 70.7676 51.6763 71.8479 50.573 72.8532H50.5688C50.5438 72.8803 50.5167 72.897 50.4917 72.9199C55.8578 77.7793 62.9738 80.7408 70.7801 80.7387C87.4751 80.7325 101.004 67.1929 101 50.5C101 50.4938 101 50.4896 101 50.4854C101.002 33.7925 87.4646 20.2593 70.7697 20.2634ZM47.747 31.2022H53.4928C54.3395 32.2283 55.1258 33.3087 55.8391 34.4391H45.5885C46.2496 33.3587 46.9754 32.2471 47.747 31.2022ZM43.8032 37.6133H57.5826C58.0727 38.6602 58.5065 39.7427 58.8861 40.8522H42.1702C42.3371 40.5393 42.921 39.2797 43.8032 37.6133ZM12.3403 58.2L14.1735 46.6417L10.0379 58.2H7.82089L7.53308 46.6417L5.57473 58.2H2.46932L5.04291 42.871H9.73961L9.90437 52.2769L13.0765 42.871H18.1716L15.6334 58.2H12.3403ZM23.3208 58.1749L23.4272 56.9507C23.3772 56.957 22.3969 58.4294 20.1258 58.4294C18.937 58.4294 17.0183 57.7808 17.0183 54.9611C17.0183 51.376 19.9422 50.1872 22.7265 50.1872C23.1644 50.1872 24.1092 50.2664 24.1092 50.2664C24.1092 50.2664 24.2156 50.0475 24.2156 49.4552C24.2156 48.4812 23.3396 48.3477 22.1404 48.3477C20.0277 48.3477 18.6325 48.9129 18.6325 48.9129L19.0997 46.1391C19.0997 46.1391 20.7931 45.43 22.9976 45.43C24.1384 45.43 27.419 45.551 27.419 49.3113L26.1551 58.1749H23.3208ZM35.2983 54.2707C35.2983 58.5482 31.1542 58.3647 30.4306 58.3647C27.7297 58.3647 26.8955 57.9914 26.8183 57.9705L27.248 55.155C27.2521 55.13 28.6036 55.6451 30.1073 55.6451C30.9749 55.6451 32.1011 55.5596 32.1011 54.5231C32.1011 52.9714 28.0718 53.3427 28.0718 49.6575C28.0718 46.4061 30.4869 45.455 32.8686 45.455C34.7081 45.455 35.8384 45.7074 35.8384 45.7074L35.4318 48.5479C35.4318 48.5479 33.6861 48.404 33.2336 48.404C32.0886 48.404 31.465 48.6543 31.465 49.4552C31.4629 51.0652 35.2983 50.2769 35.2983 54.2707ZM40.2745 55.3928C40.5602 55.3928 40.8834 55.2948 41.1045 55.2948L40.702 58.0289C40.3787 58.1186 39.4632 58.444 38.289 58.4523C36.7895 58.4648 35.7237 57.6264 35.7237 55.7244C35.7237 54.448 37.5528 43.9305 37.6237 43.8617H40.8417L40.5143 45.7428H42.1202L41.7093 48.7732H40.0054L39.1003 54.3562C39.0314 54.8005 39.1545 55.3928 40.2745 55.3928ZM47.3529 45.3883C50.8858 45.3883 51.9432 47.9744 51.9432 50.0954C51.9432 50.9443 51.5178 53.0298 51.5178 53.0298H44.9774C44.9774 53.0298 44.3726 55.6055 47.8284 55.6055C49.4489 55.6055 51.2466 54.813 51.2466 54.813L50.6794 57.9142C50.6794 57.9142 49.6407 58.444 47.2799 58.444C44.7209 58.444 41.7197 57.3616 41.7197 52.815C41.7218 48.8754 44.1161 45.3883 47.3529 45.3883ZM55.8766 66.5005H45.1526C44.4998 65.4577 43.8908 64.3878 43.3674 63.2637H57.6389C57.1133 64.3816 56.5252 65.4619 55.8766 66.5005ZM55.1571 58.2229H51.8535L53.8619 45.747H56.8589L56.5711 47.5552C56.5711 47.5552 57.6389 45.5885 59.08 45.5885C59.4992 45.5885 59.7015 45.6302 59.7015 45.6302C59.274 46.502 58.8965 47.3008 58.5044 49.3634C56.2687 48.5709 56.0977 52.8943 55.1571 58.2229ZM67.7435 58.0289C67.7435 58.0289 66.0125 58.4711 64.928 58.4711C61.0864 58.4711 59.1363 55.8203 59.1363 51.8056C59.1363 45.7512 62.7506 42.5269 66.465 42.5269C68.1439 42.5269 70.0898 43.3152 70.0898 43.3152L69.5642 46.7251C69.5642 46.7251 68.2482 45.8054 66.611 45.8054C64.4212 45.8054 62.4566 47.8951 62.4566 51.693C62.4566 53.5637 63.3721 55.3073 65.6579 55.3073C66.7445 55.3073 68.3191 54.5168 68.3191 54.5168L67.7435 58.0289ZM75.4914 58.1812L75.5998 56.9486C75.5477 56.9549 74.5675 58.4273 72.2984 58.4273C71.1096 58.4273 69.1909 57.7787 69.1909 54.959C69.1909 51.3739 72.1148 50.1851 74.897 50.1851C75.335 50.1851 76.2818 50.2644 76.2818 50.2644C76.2818 50.2644 76.3903 50.0475 76.3903 49.4552C76.3903 48.4812 75.5143 48.3477 74.313 48.3477C72.2004 48.3477 70.8072 48.9129 70.8072 48.9129L71.2744 46.1391C71.2744 46.1391 72.9678 45.43 75.1744 45.43C76.3131 45.43 79.5958 45.551 79.5937 49.3113L78.3298 58.1749C78.3278 58.1812 75.4914 58.1812 75.4914 58.1812ZM82.1798 58.2229H78.8763L80.8847 45.747H83.8837L83.5959 47.5552C83.5959 47.5552 84.6658 45.5885 86.1069 45.5885C86.5261 45.5885 86.7264 45.6302 86.7264 45.6302C86.3009 46.502 85.9192 47.3008 85.5292 49.3634C83.2914 48.5709 83.1204 52.8943 82.1798 58.2229ZM92.0425 58.1895L92.1822 57.0404C92.1822 57.0404 91.1144 58.3877 89.1832 58.3877C86.5074 58.3877 85.1955 55.8036 85.1955 53.1633C85.1955 49.0798 87.6524 45.5197 90.6013 45.5197C92.4992 45.5239 93.7109 47.1986 93.7109 47.1986L94.4075 42.8919L97.6339 42.8856L95.1729 58.1895H92.0425ZM98.4076 57.7578C98.3221 57.9121 98.2012 58.031 98.0468 58.1228C97.8946 58.2083 97.7319 58.2521 97.5609 58.2521C97.3941 58.2521 97.2335 58.2083 97.0791 58.1228C96.9248 58.031 96.8038 57.9121 96.7183 57.7578C96.6307 57.6014 96.589 57.4429 96.589 57.274C96.589 57.1029 96.6328 56.9403 96.7183 56.7859C96.8038 56.6316 96.9311 56.5065 97.0833 56.423C97.2418 56.3375 97.3982 56.2937 97.5609 56.2937C97.7277 56.2937 97.8862 56.3375 98.0406 56.423C98.1991 56.5086 98.32 56.6274 98.4076 56.7859C98.4973 56.9424 98.5369 57.105 98.5369 57.274C98.5369 57.4429 98.4952 57.6035 98.4076 57.7578Z" fill="white" fill-opacity="0.81"/>
<path d="M98.149 66.9822C98.1282 66.9676 98.1094 66.9446 98.076 66.9321C98.0427 66.9196 97.9905 66.9133 97.9092 66.9133H97.7131V67.2262H97.9217C98.0197 67.2262 98.0844 67.2178 98.1219 67.1824C98.1574 67.1532 98.1741 67.1177 98.1741 67.0677C98.1741 67.0343 98.1657 67.0114 98.149 66.9822Z" fill="white" fill-opacity="0.81"/>
<path d="M98.8228 66.7947C98.7331 66.632 98.6101 66.5173 98.4537 66.4318C98.2972 66.3463 98.1387 66.3025 97.9761 66.3025C97.8092 66.3025 97.6507 66.3463 97.4964 66.4318C97.342 66.5173 97.2148 66.6362 97.1293 66.7947C97.0396 66.949 97 67.1117 97 67.2785C97 67.4454 97.0438 67.6101 97.1293 67.7624C97.219 67.9167 97.3399 68.0419 97.4922 68.1274C97.6465 68.2129 97.8092 68.2567 97.9802 68.2567C98.1471 68.2567 98.3097 68.2129 98.462 68.1274C98.6142 68.0419 98.7373 67.9167 98.8228 67.7624C98.9104 67.6101 98.9521 67.4475 98.9521 67.2785C98.9521 67.1096 98.9083 66.9469 98.8228 66.7947ZM98.2222 67.8208L98.1304 67.656C98.0574 67.5267 97.9969 67.4412 97.951 67.4078C97.9218 67.387 97.8759 67.3703 97.8176 67.3703H97.7195V67.8187H97.5485V66.7655H97.9114C98.0365 66.7655 98.1262 66.7759 98.1763 66.7968C98.2326 66.8176 98.2805 66.8468 98.3097 66.899C98.3431 66.9469 98.3577 66.9991 98.3577 67.0533C98.3577 67.1305 98.3285 67.1951 98.2764 67.2556C98.2222 67.3098 98.1471 67.3453 98.0574 67.3515C98.0949 67.364 98.1241 67.3849 98.1471 67.4078C98.1909 67.4496 98.2409 67.5184 98.3035 67.6143L98.4328 67.8208H98.2222Z" fill="white" fill-opacity="0.81"/>
<path d="M22.9873 52.5793C20.6285 52.5793 20.1509 53.6388 20.1509 54.521C20.1509 54.9757 20.4116 55.7348 21.4106 55.7348C23.3481 55.7348 23.7506 53.1946 23.688 52.6544C23.5962 52.6357 23.5378 52.5814 22.9873 52.5793Z" fill="white" fill-opacity="0.81"/>
<path d="M47.3655 48.2686C45.6115 48.2686 45.2737 50.2644 45.2737 50.4751H48.8463C48.8463 50.3145 49.182 48.2686 47.3655 48.2686Z" fill="white" fill-opacity="0.81"/>
<path d="M91.158 48.6167C89.7419 48.6167 88.6219 50.2601 88.624 52.7566C88.624 54.279 89.1663 55.2551 90.3259 55.2551C92.0694 55.2551 92.9099 52.9797 92.9099 51.2841C92.9099 49.4134 92.3155 48.6167 91.158 48.6167Z" fill="white" fill-opacity="0.81"/>
<path d="M98.2616 56.8694C98.1886 56.74 98.0864 56.6399 97.9571 56.5669C97.8278 56.494 97.6964 56.4585 97.5587 56.4585C97.4253 56.4585 97.2897 56.496 97.1604 56.5669C97.0311 56.6337 96.9289 56.738 96.8559 56.8694C96.7829 57.0007 96.7454 57.1405 96.7454 57.276C96.7454 57.4158 96.7829 57.5534 96.8517 57.6806C96.9289 57.8099 97.0269 57.908 97.1562 57.9851C97.2855 58.056 97.419 58.0977 97.5587 58.0977C97.6985 58.0977 97.8361 58.056 97.9612 57.9851C98.0905 57.9121 98.1907 57.812 98.2657 57.6806C98.3387 57.5513 98.3721 57.4158 98.3721 57.276C98.3721 57.1384 98.3346 57.0007 98.2616 56.8694ZM97.809 57.812L97.7151 57.6494C97.6422 57.518 97.5838 57.4345 97.54 57.4033C97.5045 57.3761 97.4628 57.3636 97.4023 57.3636H97.3064V57.8099H97.1312V56.7588H97.4962C97.6192 56.7588 97.711 56.7692 97.7631 56.7922C97.8152 56.811 97.8611 56.8464 97.8966 56.8923C97.932 56.9382 97.9446 56.9903 97.9446 57.0466C97.9446 57.1238 97.9154 57.1884 97.8611 57.2468C97.8069 57.3073 97.7318 57.3323 97.6442 57.3428C97.6859 57.3595 97.7131 57.3782 97.7339 57.397C97.7777 57.4408 97.8278 57.5034 97.8882 57.6035L98.0176 57.812H97.809Z" fill="white" fill-opacity="0.81"/>
<path d="M75.1618 52.5793C72.803 52.5793 72.3254 53.6388 72.3254 54.521C72.3254 54.9757 72.5841 55.7348 73.5851 55.7348C75.5226 55.7348 75.923 53.1946 75.8626 52.6544C75.7687 52.6357 75.7103 52.5814 75.1618 52.5793Z" fill="white" fill-opacity="0.81"/>
<path d="M97.7381 56.9736C97.7214 56.9528 97.6985 56.9361 97.6672 56.9215C97.6318 56.9111 97.5796 56.9006 97.4962 56.9006V56.9027H97.3064V57.2197H97.5129C97.6109 57.2197 97.6756 57.2072 97.7152 57.1759C97.7465 57.1446 97.7652 57.105 97.7652 57.0591C97.7652 57.0237 97.7569 57.0028 97.7381 56.9736Z" fill="white" fill-opacity="0.81"/>
</svg>
