<svg width="23" height="23" viewBox="0 0 23 23" fill="none" xmlns="http://www.w3.org/2000/svg">
<g clip-path="url(#clip0)">
<path d="M21.7385 3.30725C20.9297 2.49789 19.8324 2.04333 18.6882 2.04371C17.5445 2.04102 16.4471 2.49544 15.6401 3.30585L10.0719 8.87416C8.97018 9.97759 8.549 11.5893 8.97008 13.0907C9.09337 13.5277 9.54765 13.7821 9.98472 13.6588C10.4218 13.5355 10.6762 13.0813 10.5529 12.6442C10.2933 11.7157 10.5538 10.7194 11.2345 10.0369L16.8028 4.46937C17.8438 3.42808 19.5319 3.42789 20.5732 4.46898C21.6145 5.51003 21.6147 7.19811 20.5736 8.2394L15.0054 13.8077C14.6405 14.173 14.177 14.4242 13.6717 14.5304C13.2271 14.623 12.9417 15.0584 13.0343 15.503C13.1139 15.8853 13.4514 16.1589 13.8419 16.1577C13.8993 16.1577 13.9567 16.1517 14.0129 16.1396C14.8296 15.9674 15.5784 15.5611 16.168 14.9704L21.7363 9.40292C23.4202 7.72023 23.4212 4.99114 21.7385 3.30725Z" fill="black"/>
<path d="M14.0057 9.93178C13.8824 9.4947 13.4281 9.24032 12.991 9.36361C12.554 9.4869 12.2996 9.94117 12.4229 10.3783C12.6825 11.3067 12.422 12.303 11.7412 12.9856L6.17294 18.5539C5.13189 19.5952 3.4438 19.5954 2.40252 18.5543C1.36123 17.5132 1.36104 15.8251 2.40208 14.7839L7.97039 9.21473C8.33472 8.84944 8.79762 8.59829 9.30243 8.49196C9.74775 8.40287 10.0365 7.9697 9.94745 7.52443C9.85837 7.07916 9.42519 6.79033 8.97993 6.87941C8.97448 6.88052 8.96909 6.88163 8.96369 6.88283C8.14687 7.05527 7.39778 7.46151 6.80774 8.05208L1.23943 13.6204C-0.431211 15.3168 -0.410301 18.0463 1.28612 19.717C2.96404 21.3694 5.65742 21.3696 7.33559 19.7174L12.9038 14.1482C14.0056 13.0448 14.4268 11.4331 14.0057 9.93178Z" fill="black"/>
</g>
<defs>
<clipPath id="clip0">
<rect width="23" height="23" fill="white"/>
</clipPath>
</defs>
</svg>
